<svg xmlns="http://www.w3.org/2000/svg" width="22" height="38" viewBox="0 0 22 38">
	<path d="M14.55 13.716L4.535 23.98v13.979h.07V38h8.218v-6.023l8.385-11.064c.331-.414.552-.925.552-1.478V2.417A2.42 2.42 0 0 0 19.343 0a2.411 2.411 0 0 0-2.417 2.417v9.821c.58.125 1.132.373 1.575.815 1.298 1.244 1.326 3.302.069 4.6l-4.573 4.697-.621-.608 4.572-4.683a2.397 2.397 0 0 0-.041-3.384 2.298 2.298 0 0 0-1.009-.566c-.4-.11-.815-.125-1.202-.042a2.228 2.228 0 0 0-1.146.65z"/>
	<path d="M12.022 7.224c-.11 1.45.69 2.694 1.782 2.763 1.05.069 2.003-1.05 2.1-2.5.11-1.45-.691-2.694-1.74-2.763-1.078-.083-2.031 1.05-2.142 2.5zM3.417 4.241c.359 1.422 1.491 2.32 2.541 2.072 1.022-.29 1.602-1.63 1.23-3.053-.36-1.423-1.492-2.32-2.542-2.072-.249.083-1.7 1.202-1.23 3.053zM.184 8.564c-.041 1.602.829 2.362 1.92 2.404 1.12 0 2.03-.732 2.03-2.321.042-1.63-.828-2.652-1.92-2.694-.248 0-1.988.512-2.03 2.611zM8.251 3.44c0 1.45.87 2.611 1.893 2.611 1.05 0 1.892-1.16 1.892-2.61 0-1.423-.829-2.611-1.892-2.611C9.12.829 8.25 2.03 8.25 3.439zM1.427 15.07c0 1.119.76 2.832 2.611 2.832 1.81 0 2.79-.539 4.213-.539.58 0 1.091.07 1.602.152l4.172-4.282c.07-.07.152-.152.221-.18-.249-.4-.69-.8-1.23-1.27-1.34-1.092-2.03-1.962-2.61-2.79-.622-.87-1.381-1.12-2.141-1.12-.732 0-1.45.111-2.072.94-1.23 1.74-2.03 2.403-2.984 3.232-1.464 1.243-1.782 1.892-1.782 3.025z"/>
</svg>