<svg xmlns="http://www.w3.org/2000/svg" xmlns:xlink="http://www.w3.org/1999/xlink" width="84.188" height="83.736" viewBox="0 0 84.188 83.736">
  <defs>
    <clipPath id="clip-path">
      <rect id="Rectangle_63" data-name="Rectangle 63" width="66.131" height="73.113"/>
    </clipPath>
  </defs>
  <g id="Group_4319" data-name="Group 4319" transform="translate(-552.522 -829)">
    <g id="Group_4318" data-name="Group 4318">
      <g id="Group_56" data-name="Group 56" transform="translate(563.959 829) rotate(9)" clip-path="url(#clip-path)">
        <path id="Path_339" data-name="Path 339" d="M394.1,289.212c-1.634,5.67-6.342,9.225-10.571,8.072-4.228-1.249-6.246-6.823-4.613-12.493s6.343-9.225,10.571-8.072c4.228,1.249,6.246,6.823,4.613,12.493Zm36.517-12.493c-3.556-2.5-9.225-.577-12.589,4.324s-3.171,10.763.481,13.262c3.556,2.5,9.225.577,12.589-4.324,4.324-6.342.384-12.685-.48-13.262Zm2.595,21.526c-4.228-1.441-8.937,1.249-11.147,7.4s.192,10.283,4.421,11.724,8.553-.192,10.763-6.342c2.883-8.072-2.979-12.4-4.036-12.781Zm-22.967-30.559c-3.94-1.441-8.841,1.826-10.859,7.3s-.48,11.147,3.556,12.589c3.94,1.441,8.841-1.826,10.859-7.3s.384-11.147-3.556-12.589Zm-12.3,30.463a53.715,53.715,0,0,1-13.838,7.015c-6.631,2.306-9.8,4.42-11.34,8.745s-1.73,12.3,5.189,14.9,10.859,2.306,16.337,4.324,8.361,5.574,15.28,8.072c6.919,2.595,12.3-2.979,13.838-7.207,1.538-4.324,1.249-7.111-2.5-14.126a66.351,66.351,0,0,1-6.823-16.433c-1.153-4.132-3.652-5.574-6.535-6.535a9.46,9.46,0,0,0-9.61,1.249Zm0,0" transform="translate(-372.183 -268.342)" fill="#7e6f8c"/>
      </g>
    </g>
    <g id="Group_57" data-name="Group 57" transform="translate(571.393 830.178) rotate(9)" clip-path="url(#clip-path)">
      <text id="SOS" transform="translate(10.445 58.054)" fill="#fff" font-size="20" font-family="BebasNeueBold, Bebas Neue"><tspan x="0" y="0">SOS</tspan></text>
    </g>
  </g>
</svg>
